device;category;user_type;count;25%;50%;75%;max;category;user_type;count;25%;50%;75%;max;;
mobile;all;new;214482;2;3;12;688;all;old;1716018;1;2;7;702;;-1
mobile;animals;new;23510;3;9;23;115;animals;old;91665;3;13;41;115;;4
mobile;art;new;3266;2;4;8;17;art;old;13515;1;5;10;17;;1
mobile;birds;new;7981;2;6;14;56;birds;old;51201;3;9;23;56;;3
mobile;blend;new;8115;1;2;5;10;blend;old;22782;1;3;5;10;;1
mobile;buildings;new;11912;3;8;17;69;buildings;old;103971;2;12;30;70;;4
mobile;butterflies;new;3768;2;4;10;31;butterflies;old;21495;2;8;17;31;;4
mobile;daily;new;30078;1;3;9;64;daily;old;275629;1;1;6;64;;-2
mobile;editors' choice;new;17951;3;5;9;23;editors' choice;old;82343;3;6;11;23;;1
mobile;fantasy;new;7166;3;9;24;57;fantasy;old;31653;2;10;27;57;;1
mobile;fashion;new;6309;2;5;12;20;fashion;old;23497;2;7;13;20;;2
mobile;flowers;new;12033;2;4;11;50;flowers;old;59152;3;9;23;50;;5
mobile;food;new;8568;3;6;15;36;food;old;42055;2;9;20;36;;3
mobile;holidays;new;20397;2;5;11;31;holidays;old;74911;2;6;13;31;;1
mobile;horoscopes;new;5536;1;2;3;6;horoscopes;old;14362;1;2;3;6;;0
mobile;interior;new;12186;2;6;14;29;interior;old;65370;2;9;17;29;;3
mobile;mandalas;new;29884;2;6;14;26;mandalas;old;115760;3;8;16;26;;2
mobile;nature;new;17083;2;6;12;69;nature;old;95809;2;7;19;69;;1
mobile;other;new;5214;3;11;33;69;other;old;28623;5;17;40;69;;6
mobile;people;new;9478;6;15;36;128;people;old;44416;3;17;56;128;;2
mobile;sea;new;5262;2;7;13;27;sea;old;23121;2;8;15;27;;1
mobile;simple;new;30148;2;6;12;24;simple;old;68396;2;7;14;24;;1
mobile;travel;new;39912;3;11;33;97;travel;old;180754;4;17;46;97;;6
mobile;vehicles;new;17892;3;8;17;35;vehicles;old;57449;2;9;19;35;;1
tablet;all;new;77351;1;3;10;466;all;old;1184321;1;2;4;468;;-1
tablet;animals;new;8153;2;6;16;77;animals;old;55249;2;8;29;77;;2
tablet;art;new;1316;1;3;6;11;art;old;9801;1;3;7;11;;0
tablet;birds;new;3670;2;4;9;38;birds;old;38914;2;7;18;38;;3
tablet;blend;new;3538;1;2;3;7;blend;old;15399;1;2;4;7;;0
tablet;buildings;new;6341;2;5;11;46;buildings;old;76014;2;8;21;47;;3
tablet;butterflies;new;1716;1;3;8;20;butterflies;old;13658;1;5;11;21;;2
tablet;daily;new;12012;1;2;6;43;daily;old;193149;1;1;4;43;;-1
tablet;editors' choice;new;6768;2;3;6;15;editors' choice;old;52655;3;5;8;15;;2
tablet;fantasy;new;2248;2;6;16;38;fantasy;old;16698;1;6;18;38;;0
tablet;fashion;new;2802;2;4;8;13;fashion;old;16269;2;5;8;13;;1
tablet;flowers;new;4707;1;3;9;33;flowers;old;43299;2;6;16;33;;3
tablet;food;new;3291;2;5;11;24;food;old;23828;2;6;13;24;;1
tablet;holidays;new;11304;2;4;8;21;holidays;old;59585;1;4;9;21;;0
tablet;horoscopes;new;1346;1;2;2;4;horoscopes;old;7167;1;1;2;4;;-1
tablet;interior;new;4933;2;4;9;20;interior;old;44029;1;6;12;20;;2
tablet;mandalas;new;11018;2;4;10;18;mandalas;old;71937;2;6;11;18;;2
tablet;nature;new;8186;2;4;8;45;nature;old;77406;1;5;15;46;;1
tablet;other;new;1961;2;6;16;45;other;old;19947;3;11;26;46;;5
tablet;people;new;3379;3;9;22;81;people;old;29588;2;11;38;85;;2
tablet;sea;new;2364;2;5;9;18;sea;old;16093;2;6;11;18;;1
tablet;simple;new;8675;2;4;8;16;simple;old;30874;2;5;9;16;;1
tablet;travel;new;11943;3;9;29;65;travel;old;79531;3;12;32;65;;3
tablet;vehicles;new;4853;2;5;11;23;vehicles;old;26422;2;6;14;24;;1
