{
  "type": "service_account",
  "project_id": "lwapps-coloring",
  "private_key_id": "5dd651dac8b36898f724e24be350387e68d9ee8e",
  "private_key": "-----BEGIN PRIVATE KEY-----\nMIIEvAIBADANBgkqhkiG9w0BAQEFAASCBKYwggSiAgEAAoIBAQDLlr1enbPIF4Lh\nQFJd2MCbJiJqQisRHnZiLpfKSmSxBXo7RSvHn52RnvXQGwqLkTb8C6j1+FsJmoS2\nq7DJpH5z5oN7+Bbs6dDMuJwqJTA6HYE93JQlxzoIMwhs3gArnbkjpfE2vbXVi2xq\nMaFR6K8U1otELVdpk8OtBrgkWLzJ/ko29ZckRdgdjo/aNvoo6GbsmgxmJL6RiJe/\ndvjxGggwbcQ5LXBLkX6Z2/djwMTLEY51T06lDBHjBfQc+t9mrUDRMKC32qf3kVlj\n/SC+Osfxd+mGbyy1n8zWblR3rKhHUq8P+Sp8j0QoCuSAhe4KTweTDcrXJ4/FAKm5\nn7v2D8MvAgMBAAECggEAB1BulEAhLd6eXp5Tdziqzsgjc2LWLkLEaQmYfXWHwY5b\nUlbNWFolLI6j8SqPie0ZJxv6IYAfMSyiePeZHd1xh5NwBNuoYzGRRVGalq8IWQYn\nVwQeNG9AZ/wBYPvm0KpVdPDoxhkxt67PIc+PpqQv6hU9IqFoYwwiewxjQDcJ7U3L\nkBTvTDZhe2Ot+BXku9o9oDliInefSmNxPpj9kXC+mOi75xxQOQ05zr+TlmmRTrTn\nthZ89C21I8adJhTfqVZlF62PPD8CHgodxBoskPUCis+A5qPE5/xtDn2daDo5tcBB\nqPcEuDpJg/F+gauYke/DNe8EvLK6kj9mF+T49zI3VQKBgQDnFnuda/RV4gXzWT8t\nrdU1OdG7GuaLw3MyLjrIMTqGEizz3qV8Ne0pJvneGgySdHteBzdHOV1dU0GOJ9W7\nVwO+nemcDCb7PD8T2bPhC3nWohg3FMUUF3I1gOvOrB8hivYYnwu4tpmrLyRCfjOE\nwFP1eXIi6DJlsPzi8zLQYIPohQKBgQDhiVhIbExSsGYNHfxweFwLUjsmTulqvpCE\nR1Qzh5KGV4RMz0gKHdtBt6qOf3P4B7xckwopYUgIEQRkk8bY6D3797t5ruIB+CEX\n57ChfBwOheVa5wSNhu21dfJOXGse5zRCXs4ObGvQEoFbstSkKWFsDRRTUcuL75gZ\nRIrxw2jlIwKBgGTd3WsjOe1a0PodVIRdwhiPekpPPZ5324plv2auhjsLJ+/ymQ0U\nhMZXqu0VNbOfgFHUmH5QPb6EnrKsFJDHNG05hESG0WUMMQQ7HFb4qV/UNPml6TgR\n29oawdLeMmBzxWON2JHxsjWUSCF18IrbYEpfjkBKVeUpUdjGCsIFvs35AoGADADj\nUfdxmHUK+We/J71AKNoXi9JnWecKif/B23w7sCq4P95IV0F/id/ck/j0kx7WR5cL\n02f6DXPaZ//1dVXm9qIYuEE2hiROnpcWL4ILfDpkGpJxC5dCz4WXf9QrX1muzll9\nXgcnNcvGVrsN1i7doIKRsl2IF8qIrc+YFYXw70ECgYATu3MnBzkxMLWzT9oxn0Fe\nY21czotf/cfABgFDRQEYnenCRhNtwFrp9GCPrzQLeT4DvtpjTAQmtBVsAuRSmO9r\nyGLv1Xa0TYQu//Jfc0AnQfSWqnDPPOyqKqp6IOZAvhtHNJLwklxf1Wiyd1NWNkOn\n4nYVRVIBJ8ckDAuw47qJvQ==\n-----END PRIVATE KEY-----\n",
  "client_email": "id-serv-acc3-happy-canvas@lwapps-coloring.iam.gserviceaccount.com",
  "client_id": "109154573055212908767",
  "auth_uri": "https://accounts.google.com/o/oauth2/auth",
  "token_uri": "https://oauth2.googleapis.com/token",
  "auth_provider_x509_cert_url": "https://www.googleapis.com/oauth2/v1/certs",
  "client_x509_cert_url": "https://www.googleapis.com/robot/v1/metadata/x509/id-serv-acc3-happy-canvas%40lwapps-coloring.iam.gserviceaccount.com"
}
